<?xml version="1.0" encoding="utf-8"?>
<!-- Generator: Adobe Illustrator 18.0.0, SVG Export Plug-In . SVG Version: 6.00 Build 0)  -->
<!DOCTYPE svg PUBLIC "-//W3C//DTD SVG 1.1//EN" "http://www.w3.org/Graphics/SVG/1.1/DTD/svg11.dtd">
<svg version="1.1" id="Layer_1" xmlns="http://www.w3.org/2000/svg" xmlns:xlink="http://www.w3.org/1999/xlink" x="0px" y="0px"
	 viewBox="0 0 10.2727308 5.8487387" enable-background="new 0 0 10.2727308 5.8487387" xml:space="preserve">
<g>
	<g>
		<g>
			<path fill="#EDEFF1" stroke="#B0BEC5" stroke-miterlimit="10" d="M5.1363654,5.3487387
				c-0.0562415,0-0.1102037-0.022346-0.1499767-0.0621448L0.7070841,1.0071077l0.2999532-0.299979l4.1293283,4.1294837
				l4.1293283-4.1294837l0.2999535,0.299979l-4.279305,4.2794862C5.2465692,5.3263927,5.1926064,5.3487387,5.1363654,5.3487387z"/>
		</g>
	</g>
</g>
</svg>
