<?xml version="1.0" encoding="utf-8"?>
<!-- Generator: Adobe Illustrator 19.1.1, SVG Export Plug-In . SVG Version: 6.00 Build 0)  -->
<svg version="1.1" id="Шар_1" xmlns="http://www.w3.org/2000/svg" xmlns:xlink="http://www.w3.org/1999/xlink" x="0px" y="0px"
	 viewBox="0 0 35.2 35.2" style="enable-background:new 0 0 35.2 35.2;" xml:space="preserve">
<style type="text/css">
	.st0{fill:#5E35B1;}
	.st1{fill:#FFFFFF;}
	.st2{font-family:'ProximaNova-Regular';}
	.st3{font-size:10px;}
</style>
<g>
	<circle class="st0" cx="17.6" cy="17.6" r="17.6"/>
	<g>
		<text transform="matrix(1 0 0 1 8.6875 20.5113)" class="st1 st2 st3">icon</text>
	</g>
</g>
</svg>
