<?xml version="1.0" encoding="utf-8"?>
<!-- Generator: Adobe Illustrator 18.0.0, SVG Export Plug-In . SVG Version: 6.00 Build 0)  -->
<!DOCTYPE svg PUBLIC "-//W3C//DTD SVG 1.1//EN" "http://www.w3.org/Graphics/SVG/1.1/DTD/svg11.dtd">
<svg version="1.1" id="Layer_1" xmlns="http://www.w3.org/2000/svg" xmlns:xlink="http://www.w3.org/1999/xlink" x="0px" y="0px"
	 viewBox="0 0 24.5552483 24.5552483" enable-background="new 0 0 24.5552483 24.5552483" xml:space="preserve">
<g>
	
		<polyline fill="none" stroke="#F05323" stroke-width="1.2923815" stroke-linecap="round" stroke-linejoin="round" stroke-miterlimit="10" points="
		17.4471512,13.5700064 12.2776241,18.7395325 7.1080985,13.5700064 	"/>
	
		<line fill="none" stroke="#F05323" stroke-width="1.2923815" stroke-linecap="round" stroke-linejoin="round" stroke-miterlimit="10" x1="12.2776241" y1="18.7395325" x2="12.2776241" y2="7.1080985"/>
	
		<circle fill="none" stroke="#F05323" stroke-width="1.2923815" stroke-linecap="round" stroke-linejoin="round" stroke-miterlimit="10" cx="12.2776442" cy="12.2776442" r="11.6314335"/>
</g>
</svg>
