<?xml version="1.0" encoding="utf-8"?>
<!-- Generator: Adobe Illustrator 15.1.0, SVG Export Plug-In  -->
<!DOCTYPE svg PUBLIC "-//W3C//DTD SVG 1.1//EN" "http://www.w3.org/Graphics/SVG/1.1/DTD/svg11.dtd" [
	<!ENTITY ns_flows "http://ns.adobe.com/Flows/1.0/">
]>
<svg version="1.1"
	 xmlns="http://www.w3.org/2000/svg" xmlns:xlink="http://www.w3.org/1999/xlink" xmlns:a="http://ns.adobe.com/AdobeSVGViewerExtensions/3.0/"
	 x="0px" y="0px" width="22px" height="42px" viewBox="-0.293 -0.473 22 42" enable-background="new -0.293 -0.473 22 42"
	 xml:space="preserve">
<defs>
</defs>
<polyline fill="none" stroke="#E0E0E0" stroke-miterlimit="10" points="20.882,40.701 0.707,20.527 20.882,0.354 "/>
</svg>
