<?xml version="1.0" encoding="utf-8"?>
<!-- Generator: Adobe Illustrator 19.1.1, SVG Export Plug-In . SVG Version: 6.00 Build 0)  -->
<svg version="1.1" id="Слой_1" xmlns="http://www.w3.org/2000/svg" xmlns:xlink="http://www.w3.org/1999/xlink" x="0px" y="0px"
	 viewBox="0 0 143.1914063 145.6128998" style="enable-background:new 0 0 143.1914063 145.6128998;" xml:space="preserve">
<style type="text/css">
	.st0{fill:#5187E1;}
</style>
<g>
	<g>
		<g>
			<g>
				<path class="st0" d="M36.0880013,145.6128998c-8.2340012,0-14.2108021-6.2994995-14.2108021-14.9810028
					c0-8.6744995,6.1097012-15.2164001,14.2108021-15.2164001h14.2095985c0.9812012,0,1.7759018,0.7947006,1.7759018,1.7759018
					v14.2119064C52.0735016,138.9730988,44.6040001,145.6128998,36.0880013,145.6128998z M36.0880013,118.9673004
					c-6.1761017,0-10.6590004,4.905899-10.6590004,11.6645966c0,6.6212006,4.4828987,11.4291992,10.6590004,11.4291992
					c6.507,0,12.4337006-5.0807037,12.4337006-10.6577911v-12.4360046H36.0880013z"/>
			</g>
			<g>
				<path class="st0" d="M87.5998993,127.8491974c-8.6651993,0-15.9854965-6.8612976-15.9854965-14.9810944
					c0-8.2479019,7.3202972-15.2140045,15.9854965-15.2140045h12.4347992c0.9812012,0,1.7759018,0.7947006,1.7759018,1.7759018
					v14.2096024C101.8106003,121.7406998,95.7009964,127.8491974,87.5998993,127.8491974z M87.5998993,101.2059021
					c-6.6235962,0-12.4337006,5.4488983-12.4337006,11.6622009c0,6.1947937,5.6936035,11.4292984,12.4337006,11.4292984
					c6.075798,0,10.6588974-4.5820007,10.6588974-10.6577988v-12.4337006H87.5998993z"/>
			</g>
			<g>
				<path class="st0" d="M52.0735016,121.4401016h-3.5517998V62.1264992c0-0.7294006,0.4462967-1.3866997,1.1267967-1.652401
					l49.7371979-19.5395966c0.5465012-0.219101,1.1653061-0.1445007,1.6489029,0.1840973
					c0.4859009,0.3309021,0.776001,0.8809013,0.776001,1.4682999v65.4150009h-3.5518036V45.1925011L52.0735016,63.3361015
					V121.4401016z"/>
			</g>
			<g>
				
					<rect x="73.3908844" y="43.4015961" transform="matrix(0.3656245 0.9307625 -0.9307625 0.3656245 112.9490814 -25.4791794)" class="st0" width="3.5506375" height="53.4377098"/>
			</g>
		</g>
		<path class="st0" d="M129.3547058,56.283699c2.8130951-8.8701973,1.696701-17.1763992-3.2092056-23.5551987
			c-4.5562973-5.9197006-11.7437973-9.1989002-19.5268021-8.9705009C100.7945023,9.2641001,87.2362976,0,71.5957031,0
			C51.6259995,0,34.6464996,17.2905998,33.475399,38.2589989C14.8143997,39.4592018,0,55.0228996,0,73.9822006
			c0,19.740097,16.0589008,35.7978973,35.7977982,35.7978973h4.9217033v-4.772995h-4.9217033
			c-17.1076984,0-31.0247993-13.9183044-31.0247993-31.0249023c0-17.1064987,13.9171-31.0247993,31.0247993-31.0247993
			c1.3180008,0,2.3866005-1.0674019,2.3866005-2.3865013c0-19.4044991,15.3003006-35.7979012,33.4113045-35.7979012
			c14.1897964,0,26.4195938,8.7397003,31.1587982,22.2687988c0.3647995,1.0395012,1.3890991,1.6780014,2.4902954,1.5848007
			c6.8134995-0.7038002,13.2156067,1.9391003,17.1170044,7.0128002c4.2008972,5.4604988,4.8721008,12.846199,1.8889008,20.7981987
			c-0.4043045,1.0790024,0.0209961,2.2933006,1.009201,2.8852005c6.5489044,3.9247017,13.158493,12.1912994,13.158493,21.8190002
			c0,13.6060028-10.2592926,23.865303-23.8651962,23.865303h-8.344696v4.772995h8.344696
			c16.3257065,0,28.6382065-12.3125,28.6382065-28.638298C143.1914063,71.7891998,137.6981964,62.0285988,129.3547058,56.283699z"/>
	</g>
</g>
</svg>
