<?xml version="1.0" encoding="utf-8"?>
<!-- Generator: Adobe Illustrator 19.1.1, SVG Export Plug-In . SVG Version: 6.00 Build 0)  -->
<svg version="1.1" id="Слой_1" xmlns="http://www.w3.org/2000/svg" xmlns:xlink="http://www.w3.org/1999/xlink" x="0px" y="0px"
	 viewBox="0 0 16.593399 8.6943998" style="enable-background:new 0 0 16.593399 8.6943998;" xml:space="preserve">
<style type="text/css">
	.st0{fill:#B3BDC3;}
</style>
<g>
	<g>
		<path class="st0" d="M8.2966995,0c0.1054001,0,0.2065001,0.0418,0.2810001,0.1164l8.0156994,8.0160999L16.031601,8.6943998
			L8.2966995,0.9593L0.5619,8.6943998L0,8.1324997L8.0158005,0.1164C8.0902996,0.0418,8.1913996,0,8.2966995,0z"/>
	</g>
</g>
</svg>
