<?xml version="1.0" encoding="utf-8"?>
<!-- Generator: Adobe Illustrator 19.1.1, SVG Export Plug-In . SVG Version: 6.00 Build 0)  -->
<svg version="1.1" id="Слой_1" xmlns="http://www.w3.org/2000/svg" xmlns:xlink="http://www.w3.org/1999/xlink" x="0px" y="0px"
	 viewBox="0 0 5 964.2" style="enable-background:new 0 0 5 964.2;" xml:space="preserve">
<style type="text/css">
	.st0{fill:#42A5F5;stroke:#CFD8DC;stroke-width:0.5;stroke-miterlimit:10;}
	.st1{fill:#42A5F5;}
	.st2{fill:#42A5F5;stroke:#42A5F5;stroke-width:0.5;stroke-miterlimit:10;}
	.st3{fill:#D6D6D6;stroke:#CFD8DC;stroke-width:0.5;stroke-miterlimit:10;}
	.st4{fill:#42A5F5;stroke:#42A5F5;stroke-miterlimit:10;}
	.st5{fill:#CFD8DC;}
</style>
<line class="st0" x1="2.5" y1="2.5" x2="2.5" y2="242.5"/>
<circle class="st1" cx="2.5" cy="2.5" r="2.5"/>
<circle class="st1" cx="2.5" cy="30.6" r="2.5"/>
<g>
	<circle class="st1" cx="2.5" cy="62.1" r="2.5"/>
</g>
<circle class="st1" cx="2.5" cy="91.3" r="2.5"/>
<circle class="st1" cx="2.5" cy="122.1" r="2.5"/>
<circle class="st1" cx="2.5" cy="182.8" r="2.5"/>
<circle class="st1" cx="2.5" cy="212.3" r="2.5"/>
<circle class="st1" cx="2.5" cy="153.6" r="2.5"/>
<line class="st2" x1="2.5" y1="242.2" x2="2.5" y2="482.2"/>
<circle class="st1" cx="2.5" cy="242.2" r="2.5"/>
<circle class="st1" cx="2.5" cy="270.4" r="2.5"/>
<g>
	<circle class="st1" cx="2.5" cy="301.9" r="2.5"/>
</g>
<circle class="st1" cx="2.5" cy="331.1" r="2.5"/>
<circle class="st1" cx="2.5" cy="361.8" r="2.5"/>
<circle class="st1" cx="2.5" cy="422.5" r="2.5"/>
<circle class="st1" cx="2.5" cy="452" r="2.5"/>
<circle class="st1" cx="2.5" cy="393.3" r="2.5"/>
<line class="st3" x1="2.5" y1="481.9" x2="2.5" y2="721.8"/>
<circle class="st4" cx="2.5" cy="482.2" r="2.5"/>
<circle class="st5" cx="2.5" cy="510" r="2.5"/>
<g>
	<circle class="st5" cx="2.5" cy="541.5" r="2.5"/>
</g>
<circle class="st5" cx="2.5" cy="570.7" r="2.5"/>
<circle class="st5" cx="2.5" cy="601.4" r="2.5"/>
<circle class="st5" cx="2.5" cy="662.1" r="2.5"/>
<circle class="st5" cx="2.5" cy="691.7" r="2.5"/>
<circle class="st5" cx="2.5" cy="632.9" r="2.5"/>
<line class="st3" x1="2.5" y1="721.7" x2="2.5" y2="961.7"/>
<circle class="st5" cx="2.5" cy="722.1" r="2.5"/>
<circle class="st5" cx="2.5" cy="749.8" r="2.5"/>
<g>
	<circle class="st5" cx="2.5" cy="781.4" r="2.5"/>
</g>
<circle class="st5" cx="2.5" cy="810.6" r="2.5"/>
<circle class="st5" cx="2.5" cy="841.3" r="2.5"/>
<circle class="st5" cx="2.5" cy="902" r="2.5"/>
<circle class="st5" cx="2.5" cy="931.5" r="2.5"/>
<circle class="st5" cx="2.5" cy="961.7" r="2.5"/>
<circle class="st5" cx="2.5" cy="872.8" r="2.5"/>
</svg>
